{
  "name": "confetti",
  "title": "Confetti",
  "description": "Everyone loves confetti.",
  "version": "1.0.5",
  "author": "The_Asshat",
  "authors": [
    {
      "name": "The_Asshat",
      "discord": "The_Asshat",
      "url": "theasshat.net",
      "email": "asshat@theasshat.net"
    },
    {
      "name": "Andrew Krigline",
      "discord": "Calego#0914",
      "url": "https://github.com/ElfFriend-DnD"
    }
  ],
  "esmodules": ["greensock/esm/all.js", "foundryvtt-confetti.js"],
  "styles": ["foundryvtt-confetti.css"],
  "languages": [
    {
      "lang": "en",
      "name": "English",
      "path": "lang/en.json"
    }
  ],
  "packs": [
    {
      "name": "confetti-macros",
      "label": "Confetti Macros",
      "path": "assets/packs/features.db",
      "module": "confetti",
      "type": "Macro"
    }
  ],
  "socket": true,
  "compatibility": {
    "minimum": "11",
    "verified": "11"
  },
  "media": [
    {
      "type": "cover",
      "link": "https://gitlab.com/The_Asshat/foundryvtt-confetti/-/blob/e3b2f286fe01dc6781bc9b75d29ec82457fde83b/assets/readme-img/cover-image.png"
    },
    {
      "type": "screenshot",
      "link": "https://gitlab.com/The_Asshat/foundryvtt-confetti/-/blob/e3b2f286fe01dc6781bc9b75d29ec82457fde83b/assets/readme-img/confetti-popped.jpg"
    },
    {
      "type": "screenshot",
      "link": "https://gitlab.com/The_Asshat/foundryvtt-confetti/-/blob/e3b2f286fe01dc6781bc9b75d29ec82457fde83b/assets/readme-img/confetti-menu.jpg"
    },
    {
      "type": "screenshot",
      "link": "https://gitlab.com/The_Asshat/foundryvtt-confetti/-/blob/e3b2f286fe01dc6781bc9b75d29ec82457fde83b/assets/readme-img/confetti-demo.gif"
    }
  ],
  "manifest": "https://gitlab.com/The_Asshat/foundryvtt-confetti/-/blob/e3b2f286fe01dc6781bc9b75d29ec82457fde83b/module.json",
  "download": "https://github.com/ElfFriend-DnD/foundryvtt-confetti/releases/download/v1.0.5/module.zip",
  "readme": "https://gitlab.com/The_Asshat/foundryvtt-confetti/-/raw/dd9a2573f3eb9d4707beba148fde500b22f15539/README.md",
  "bugs": "https://gitlab.com/The_Asshat/foundryvtt-confetti/-/issues",
  "url": "https://gitlab.com/The_Asshat/foundryvtt-confetti"
}
